-------------------------------------------------------------------------------
Test set: de.hska.iwi.vislab.lab2.example.FibonacciTest
-------------------------------------------------------------------------------
Tests run: 1, Failures: 0, Errors: 0, Skipped: 0, Time elapsed: 0.674 sec
